%YAML 1.1
%TAG !u! tag:unity3d.com,2011:
--- !u!114 &11400000
MonoBehaviour:
  m_ObjectHideFlags: 0
  m_CorrespondingSourceObject: {fileID: 0}
  m_PrefabInstance: {fileID: 0}
  m_PrefabAsset: {fileID: 0}
  m_GameObject: {fileID: 0}
  m_Enabled: 1
  m_EditorHideFlags: 0
  m_Script: {fileID: -1893448595, guid: a040fb66244a7f54289914d98ea4ef7d, type: 3}
  m_Name: Mission_Screen
  m_EditorClassIdentifier: 
  _data:
    _json: '{"graph":{"variables":{"collection":{"$content":[],"$version":"A"},"$version":"A"},"controlInputDefinitions":[],"controlOutputDefinitions":[],"valueInputDefinitions":[],"valueOutputDefinitions":[],"title":null,"summary":null,"pan":{"x":0.0,"y":0.0},"zoom":1.0,"elements":[{"member":{"name":"deltaTime","parameterTypes":null,"targetType":"UnityEngine.Time","targetTypeName":"UnityEngine.Time","$version":"A"},"defaultValues":{},"position":{"x":-520.0,"y":-77.0},"guid":"796d942a-20d8-4655-9f91-8314d03d21db","$version":"A","$type":"Bolt.GetMember"},{"defaultValues":{"seconds":{"$content":5.0,"$type":"System.Single"},"unscaledTime":{"$content":false,"$type":"System.Boolean"}},"position":{"x":-395.0,"y":-237.0},"guid":"87a813eb-fdf3-4b4e-a592-a6c65422043c","$version":"A","$type":"Bolt.WaitForSecondsUnit","$id":"12"},{"coroutine":false,"defaultValues":{},"position":{"x":-619.0,"y":-322.0},"guid":"a0a25ce0-da5a-4cd9-b48f-fd8d18c4f038","$version":"A","$type":"Bolt.Start"},{"coroutine":true,"defaultValues":{},"position":{"x":-592.0,"y":-241.0},"guid":"325194d8-3436-4791-8956-936b94ed81fb","$version":"A","$type":"Bolt.Start","$id":"16"},{"chainable":false,"member":{"name":"Destroy","parameterTypes":["UnityEngine.Object"],"targetType":"UnityEngine.Component","targetTypeName":"UnityEngine.Component","$version":"A"},"defaultValues":{"%obj":null},"position":{"x":-34.0,"y":-224.0},"guid":"7b9415dd-8ed5-4d43-bcad-602c0abb0b32","$version":"A","$type":"Bolt.InvokeMember","$id":"18"},{"defaultValues":{},"position":{"x":-148.0,"y":-103.0},"guid":"fe2246f9-d6ec-4a27-8d1b-5170169e4abd","$version":"A","$type":"Bolt.Self","$id":"21"},{"sourceUnit":{"$ref":"16"},"sourceKey":"trigger","destinationUnit":{"$ref":"12"},"destinationKey":"enter","guid":"312e6e8e-6d14-432b-a938-bdf411cb78b7","$type":"Bolt.ControlConnection"},{"sourceUnit":{"$ref":"12"},"sourceKey":"exit","destinationUnit":{"$ref":"18"},"destinationKey":"enter","guid":"72411d06-074f-4442-af28-94440aa3f732","$type":"Bolt.ControlConnection"},{"sourceUnit":{"$ref":"21"},"sourceKey":"self","destinationUnit":{"$ref":"18"},"destinationKey":"%obj","guid":"b22677a0-ec64-4657-8a03-9ae4af5e176b","$type":"Bolt.ValueConnection"}],"$version":"A"}}'
    _objectReferences: []
