%YAML 1.1
%TAG !u! tag:unity3d.com,2011:
--- !u!114 &11400000
MonoBehaviour:
  m_ObjectHideFlags: 0
  m_CorrespondingSourceObject: {fileID: 0}
  m_PrefabInstance: {fileID: 0}
  m_PrefabAsset: {fileID: 0}
  m_GameObject: {fileID: 0}
  m_Enabled: 1
  m_EditorHideFlags: 0
  m_Script: {fileID: -1893448595, guid: a040fb66244a7f54289914d98ea4ef7d, type: 3}
  m_Name: Intrus
  m_EditorClassIdentifier: 
  _data:
    _json: '{"graph":{"variables":{"collection":{"$content":[],"$version":"A"},"$version":"A"},"controlInputDefinitions":[],"controlOutputDefinitions":[],"valueInputDefinitions":[],"valueOutputDefinitions":[],"title":null,"summary":null,"pan":{"x":517.0,"y":-21.44464},"zoom":1.0,"elements":[{"coroutine":false,"defaultValues":{},"position":{"x":-204.0,"y":-144.0},"guid":"898bb026-8468-4fbf-a07c-2ae0189f453c","$version":"A","$type":"Bolt.Start"},{"type":"System.Boolean","value":{"$content":true,"$type":"System.Boolean"},"defaultValues":{},"position":{"x":358.0,"y":-64.0},"guid":"709a459d-e47c-4f43-9868-8fcc7b7f48be","$version":"A","$type":"Bolt.Literal","$id":"11"},{"chainable":false,"member":{"name":"LoadScene","parameterTypes":["System.String"],"targetType":"UnityEngine.SceneManagement.SceneManager","targetTypeName":"UnityEngine.SceneManagement.SceneManager","$version":"A"},"defaultValues":{"%sceneName":{"$content":"Couloir","$type":"System.String"}},"position":{"x":549.0,"y":-279.0},"guid":"6f37bd35-b6e8-4287-887c-26608c49c1e4","$version":"A","$type":"Bolt.InvokeMember","$id":"13"},{"defaultValues":{},"position":{"x":321.0,"y":-213.0},"guid":"535e72e1-ff8b-4856-99c4-27204e4dc552","$version":"A","$type":"Bolt.Branch","$id":"16"},{"coroutine":false,"defaultValues":{},"position":{"x":-204.0,"y":60.0},"guid":"a0afe1e6-0488-4a62-9ef3-06f193f5bab1","$version":"A","$type":"Bolt.Update"},{"chainable":false,"member":{"name":"Destroy","parameterTypes":["UnityEngine.Object"],"targetType":"UnityEngine.GameObject","targetTypeName":"UnityEngine.GameObject","$version":"A"},"defaultValues":{"%obj":null},"position":{"x":896.0,"y":-170.0},"guid":"ea8cf0fb-10a2-4751-8e39-3ad6a4d29e5a","$version":"A","$type":"Bolt.InvokeMember","$id":"20"},{"chainable":false,"member":{"name":"CompareTag","parameterTypes":["System.String"],"targetType":"UnityEngine.GameObject","targetTypeName":"UnityEngine.GameObject","$version":"A"},"defaultValues":{"target":null,"%tag":{"$content":"Bullet","$type":"System.String"}},"position":{"x":119.0,"y":-86.0},"guid":"0d66fb9f-e2b2-4c5b-bf52-fa9ae2afe342","$version":"A","$type":"Bolt.InvokeMember","$id":"23"},{"coroutine":false,"defaultValues":{"target":null},"position":{"x":-140.0,"y":-170.0},"guid":"8c66061e-1390-42f3-a78b-2edd963dcc1d","$version":"A","$type":"Bolt.OnTriggerEnter2D","$id":"26"},{"defaultValues":{},"position":{"x":706.0,"y":-50.0},"guid":"6a75295e-fa79-4fc0-9ba3-a567e9732938","$version":"A","$type":"Bolt.Self","$id":"28"},{"kind":"Scene","defaultValues":{"name":{"$content":"TraitorHit","$type":"System.String"}},"position":{"x":740.0,"y":-167.0},"guid":"8a89cf1b-34a7-4236-8b49-964b090d1054","$version":"A","$type":"Bolt.SetVariable","$id":"30"},{"sourceUnit":{"$ref":"26"},"sourceKey":"trigger","destinationUnit":{"$ref":"16"},"destinationKey":"enter","guid":"f851c8d3-8912-4a93-ba4d-626606b0761b","$type":"Bolt.ControlConnection"},{"sourceUnit":{"$ref":"30"},"sourceKey":"assigned","destinationUnit":{"$ref":"20"},"destinationKey":"enter","guid":"216608f2-4b6a-43ab-af66-d0b5a0de952a","$type":"Bolt.ControlConnection"},{"sourceUnit":{"$ref":"16"},"sourceKey":"ifTrue","destinationUnit":{"$ref":"13"},"destinationKey":"enter","guid":"a5313367-9ae5-4fda-8bc2-b5781d2b5a3e","$type":"Bolt.ControlConnection"},{"sourceUnit":{"$ref":"11"},"sourceKey":"output","destinationUnit":{"$ref":"30"},"destinationKey":"input","guid":"2493960d-b87f-412a-9052-2cb1cf96a4db","$type":"Bolt.ValueConnection"},{"sourceUnit":{"$ref":"26"},"sourceKey":"collider","destinationUnit":{"$ref":"23"},"destinationKey":"target","guid":"1cdd11b0-a8d8-40b1-b7e3-d8c2aa407edf","$type":"Bolt.ValueConnection"},{"sourceUnit":{"$ref":"23"},"sourceKey":"result","destinationUnit":{"$ref":"16"},"destinationKey":"condition","guid":"fba67efa-a401-49a4-9dec-41e05056d9e1","$type":"Bolt.ValueConnection"},{"sourceUnit":{"$ref":"28"},"sourceKey":"self","destinationUnit":{"$ref":"20"},"destinationKey":"%obj","guid":"0ed0628b-7a2c-43a6-9294-d175bb4e9f09","$type":"Bolt.ValueConnection"}],"$version":"A"}}'
    _objectReferences: []
