%YAML 1.1
%TAG !u! tag:unity3d.com,2011:
--- !u!114 &11400000
MonoBehaviour:
  m_ObjectHideFlags: 0
  m_CorrespondingSourceObject: {fileID: 0}
  m_PrefabInstance: {fileID: 0}
  m_PrefabAsset: {fileID: 0}
  m_GameObject: {fileID: 0}
  m_Enabled: 1
  m_EditorHideFlags: 0
  m_Script: {fileID: -1893448595, guid: a040fb66244a7f54289914d98ea4ef7d, type: 3}
  m_Name: rotateFoot
  m_EditorClassIdentifier: 
  _data:
    _json: '{"graph":{"variables":{"collection":{"$content":[],"$version":"A"},"$version":"A"},"controlInputDefinitions":[{"key":"Speed","label":null,"summary":null,"hideLabel":false}],"controlOutputDefinitions":[],"valueInputDefinitions":[],"valueOutputDefinitions":[],"title":null,"summary":null,"pan":{"x":38.8757,"y":158.9999},"zoom":1.0,"elements":[{"coroutine":false,"defaultValues":{},"position":{"x":-204.0,"y":-144.0},"guid":"cbfd3f08-e60e-44a3-a3eb-a3d797e4c462","$version":"A","$type":"Bolt.Start"},{"coroutine":false,"defaultValues":{},"position":{"x":-388.0,"y":-15.0},"guid":"1561e1d3-c645-48fe-9938-45d7bfbba3e9","$version":"A","$type":"Bolt.Update","$id":"12"},{"defaultValues":{},"position":{"x":-46.0,"y":-24.0},"guid":"f0e1b303-61e2-4fe0-814d-3eb24bdedfca","$version":"A","$type":"Bolt.Branch","$id":"14"},{"numeric":true,"defaultValues":{"b":{"$content":0.0,"$type":"System.Single"}},"position":{"x":-234.0,"y":78.0},"guid":"637a8343-11b2-48c1-bffa-5406c4a33147","$version":"A","$type":"Bolt.Greater","$id":"16"},{"chainable":false,"member":{"name":"flipX","parameterTypes":null,"targetType":"UnityEngine.SpriteRenderer","targetTypeName":"UnityEngine.SpriteRenderer","$version":"A"},"defaultValues":{"target":null,"input":{"$content":false,"$type":"System.Boolean"}},"position":{"x":188.0,"y":-54.0},"guid":"c7c3f7c3-eb09-4d3d-bb7c-cfc3b59c35ad","$version":"A","$type":"Bolt.SetMember","$id":"18"},{"chainable":false,"member":{"name":"flipX","parameterTypes":null,"targetType":"UnityEngine.SpriteRenderer","targetTypeName":"UnityEngine.SpriteRenderer","$version":"A"},"defaultValues":{"target":null,"input":{"$content":true,"$type":"System.Boolean"}},"position":{"x":173.0,"y":112.0},"guid":"28deec96-c8be-49d1-bfcc-336e0da1229b","$version":"A","$type":"Bolt.SetMember","$id":"21"},{"specifyFallback":false,"kind":"Object","defaultValues":{"name":{"$content":"speed","$type":"System.String"},"object":null},"position":{"x":-448.0,"y":113.0},"guid":"9395ed01-a25d-40b8-bffd-e253c6646346","$version":"A","$type":"Bolt.GetVariable","$id":"24"},{"sourceUnit":{"$ref":"12"},"sourceKey":"trigger","destinationUnit":{"$ref":"14"},"destinationKey":"enter","guid":"5a0bb6cb-a8f4-4054-aa1f-1c1e87557362","$type":"Bolt.ControlConnection"},{"sourceUnit":{"$ref":"14"},"sourceKey":"ifTrue","destinationUnit":{"$ref":"18"},"destinationKey":"assign","guid":"38cf10c0-eaa2-4f88-9e0f-4a8fe66ef9a2","$type":"Bolt.ControlConnection"},{"sourceUnit":{"$ref":"14"},"sourceKey":"ifFalse","destinationUnit":{"$ref":"21"},"destinationKey":"assign","guid":"8d3b9e0a-942e-4826-8c89-4ddac3c83b38","$type":"Bolt.ControlConnection"},{"sourceUnit":{"$ref":"16"},"sourceKey":"comparison","destinationUnit":{"$ref":"14"},"destinationKey":"condition","guid":"49a417dd-11d3-4008-a0e0-f294af48866f","$type":"Bolt.ValueConnection"},{"sourceUnit":{"$ref":"24"},"sourceKey":"value","destinationUnit":{"$ref":"16"},"destinationKey":"a","guid":"f82fd02f-a9da-4203-baf5-70d8b72612b0","$type":"Bolt.ValueConnection"}],"$version":"A"}}'
    _objectReferences: []
